// Jest Snapshot v1, https://goo.gl/fbAQLP

exports[`sfcs parse properly 1`] = `
Object {
  "a": Object {
    "alias": Array [],
    "files": 2,
    "props": Array [
      Object {
        "details": Array [
          Object {
            "path": "/sfcs/if.vue",
            "values": Array [],
          },
          Object {
            "path": "/sfcs/ignore-tags.vue",
            "values": Array [],
          },
        ],
        "name": "_no_props_",
        "total": 2,
      },
    ],
    "total": 2,
  },
  "aa": Object {
    "alias": Array [],
    "files": 1,
    "props": Array [
      Object {
        "details": Array [
          Object {
            "path": "/sfcs/if.vue",
            "values": Array [
              1,
            ],
          },
        ],
        "name": "#default",
        "total": 1,
      },
      Object {
        "details": Array [
          Object {
            "path": "/sfcs/if.vue",
            "values": Array [],
          },
        ],
        "name": "_no_props_",
        "total": 1,
      },
    ],
    "total": 1,
  },
  "aaa": Object {
    "alias": Array [],
    "files": 1,
    "props": Array [
      Object {
        "details": Array [
          Object {
            "path": "/sfcs/if.vue",
            "values": Array [
              1,
            ],
          },
        ],
        "name": "#default",
        "total": 1,
      },
      Object {
        "details": Array [
          Object {
            "path": "/sfcs/if.vue",
            "values": Array [],
          },
        ],
        "name": "_no_props_",
        "total": 1,
      },
    ],
    "total": 1,
  },
  "aaaa": Object {
    "alias": Array [],
    "files": 1,
    "props": Array [
      Object {
        "details": Array [
          Object {
            "path": "/sfcs/if.vue",
            "values": Array [],
          },
        ],
        "name": "_no_props_",
        "total": 1,
      },
    ],
    "total": 1,
  },
  "aaab": Object {
    "alias": Array [],
    "files": 1,
    "props": Array [
      Object {
        "details": Array [
          Object {
            "path": "/sfcs/if.vue",
            "values": Array [],
          },
        ],
        "name": "_no_props_",
        "total": 1,
      },
    ],
    "total": 1,
  },
  "aaac": Object {
    "alias": Array [],
    "files": 1,
    "props": Array [
      Object {
        "details": Array [
          Object {
            "path": "/sfcs/if.vue",
            "values": Array [],
          },
        ],
        "name": "_no_props_",
        "total": 1,
      },
    ],
    "total": 1,
  },
  "aaad": Object {
    "alias": Array [],
    "files": 1,
    "props": Array [
      Object {
        "details": Array [
          Object {
            "path": "/sfcs/if.vue",
            "values": Array [],
          },
        ],
        "name": "_no_props_",
        "total": 1,
      },
    ],
    "total": 1,
  },
  "ab": Object {
    "alias": Array [],
    "files": 1,
    "props": Array [
      Object {
        "details": Array [
          Object {
            "path": "/sfcs/if.vue",
            "values": Array [],
          },
        ],
        "name": "_no_props_",
        "total": 1,
      },
    ],
    "total": 1,
  },
  "ac": Object {
    "alias": Array [],
    "files": 1,
    "props": Array [
      Object {
        "details": Array [
          Object {
            "path": "/sfcs/if.vue",
            "values": Array [],
          },
        ],
        "name": "_no_props_",
        "total": 1,
      },
    ],
    "total": 1,
  },
  "ad": Object {
    "alias": Array [],
    "files": 1,
    "props": Array [
      Object {
        "details": Array [
          Object {
            "path": "/sfcs/if.vue",
            "values": Array [],
          },
        ],
        "name": "_no_props_",
        "total": 1,
      },
    ],
    "total": 1,
  },
  "b": Object {
    "alias": Array [],
    "files": 1,
    "props": Array [
      Object {
        "details": Array [
          Object {
            "path": "/sfcs/if.vue",
            "values": Array [],
          },
        ],
        "name": "_no_props_",
        "total": 1,
      },
    ],
    "total": 1,
  },
  "ba": Object {
    "alias": Array [],
    "files": 1,
    "props": Array [
      Object {
        "details": Array [
          Object {
            "path": "/sfcs/if.vue",
            "values": Array [],
          },
        ],
        "name": "_no_props_",
        "total": 1,
      },
    ],
    "total": 1,
  },
  "bb": Object {
    "alias": Array [],
    "files": 1,
    "props": Array [
      Object {
        "details": Array [
          Object {
            "path": "/sfcs/if.vue",
            "values": Array [
              1,
            ],
          },
        ],
        "name": "#default",
        "total": 1,
      },
      Object {
        "details": Array [
          Object {
            "path": "/sfcs/if.vue",
            "values": Array [],
          },
        ],
        "name": "_no_props_",
        "total": 2,
      },
    ],
    "total": 2,
  },
  "bbb": Object {
    "alias": Array [],
    "files": 1,
    "props": Array [
      Object {
        "details": Array [
          Object {
            "path": "/sfcs/if.vue",
            "values": Array [
              1,
            ],
          },
        ],
        "name": "#default",
        "total": 1,
      },
      Object {
        "details": Array [
          Object {
            "path": "/sfcs/if.vue",
            "values": Array [],
          },
        ],
        "name": "_no_props_",
        "total": 1,
      },
    ],
    "total": 1,
  },
  "bbba": Object {
    "alias": Array [],
    "files": 1,
    "props": Array [
      Object {
        "details": Array [
          Object {
            "path": "/sfcs/if.vue",
            "values": Array [],
          },
        ],
        "name": "_no_props_",
        "total": 1,
      },
    ],
    "total": 1,
  },
  "bbbb": Object {
    "alias": Array [],
    "files": 1,
    "props": Array [
      Object {
        "details": Array [
          Object {
            "path": "/sfcs/if.vue",
            "values": Array [],
          },
        ],
        "name": "_no_props_",
        "total": 1,
      },
    ],
    "total": 1,
  },
  "bbbc": Object {
    "alias": Array [],
    "files": 1,
    "props": Array [
      Object {
        "details": Array [
          Object {
            "path": "/sfcs/if.vue",
            "values": Array [],
          },
        ],
        "name": "_no_props_",
        "total": 1,
      },
    ],
    "total": 1,
  },
  "bbbd": Object {
    "alias": Array [],
    "files": 1,
    "props": Array [
      Object {
        "details": Array [
          Object {
            "path": "/sfcs/if.vue",
            "values": Array [],
          },
        ],
        "name": "_no_props_",
        "total": 1,
      },
    ],
    "total": 1,
  },
  "bc": Object {
    "alias": Array [],
    "files": 1,
    "props": Array [
      Object {
        "details": Array [
          Object {
            "path": "/sfcs/if.vue",
            "values": Array [],
          },
        ],
        "name": "_no_props_",
        "total": 1,
      },
    ],
    "total": 1,
  },
  "bd": Object {
    "alias": Array [],
    "files": 1,
    "props": Array [
      Object {
        "details": Array [
          Object {
            "path": "/sfcs/if.vue",
            "values": Array [],
          },
        ],
        "name": "_no_props_",
        "total": 1,
      },
    ],
    "total": 1,
  },
  "button": Object {
    "alias": Array [],
    "files": 1,
    "props": Array [
      Object {
        "details": Array [
          Object {
            "path": "/sfcs/slots.vue",
            "values": Array [],
          },
        ],
        "name": "_no_props_",
        "total": 6,
      },
    ],
    "total": 6,
  },
  "div": Object {
    "alias": Array [],
    "files": 2,
    "props": Array [
      Object {
        "details": Array [
          Object {
            "path": "/sfcs/ignore-tags.vue",
            "values": Array [],
          },
          Object {
            "path": "/sfcs/slots.vue",
            "values": Array [],
          },
        ],
        "name": "_no_props_",
        "total": 6,
      },
    ],
    "total": 6,
  },
  "fd-popover": Object {
    "alias": Array [],
    "files": 3,
    "props": Array [
      Object {
        "details": Array [
          Object {
            "path": "/sfcs/props.vue",
            "values": Array [
              "\\"{ delay: 1000 }\\"",
            ],
          },
        ],
        "name": "v-bind",
        "total": 1,
      },
      Object {
        "details": Array [
          Object {
            "path": "/sfcs/events.vue",
            "values": Array [
              "\\"ahd\\"",
            ],
          },
        ],
        "name": ":active-header-dropdown.sync",
        "total": 1,
      },
      Object {
        "details": Array [
          Object {
            "path": "/sfcs/events.vue",
            "values": Array [
              "\\"active\\"",
            ],
          },
        ],
        "name": ":active.sync",
        "total": 1,
      },
      Object {
        "details": Array [
          Object {
            "path": "/sfcs/props.vue",
            "values": Array [
              "\\"title\\"",
            ],
          },
        ],
        "name": ":title",
        "total": 1,
      },
      Object {
        "details": Array [
          Object {
            "path": "/sfcs/props.vue",
            "values": Array [
              "\\"top\\"",
            ],
          },
        ],
        "name": "placement",
        "total": 1,
      },
      Object {
        "details": Array [
          Object {
            "path": "/sfcs/events.vue",
            "values": Array [
              "\\"\\"",
            ],
          },
          Object {
            "path": "/sfcs/props.vue",
            "values": Array [
              "\\"\\"",
            ],
          },
          Object {
            "path": "/sfcs/slots.vue",
            "values": Array [
              "\\"\\"",
            ],
          },
        ],
        "name": "visible",
        "total": 3,
      },
      Object {
        "details": Array [
          Object {
            "path": "/sfcs/slots.vue",
            "values": Array [
              "\\"_empty_\\"",
              "\\"a, b, c\\"",
              "\\"{ a, b, c }\\"",
              "\\"a, b, c\\"",
              "\\"{ a, b, c }\\"",
            ],
          },
        ],
        "name": "#content",
        "total": 6,
      },
      Object {
        "details": Array [
          Object {
            "path": "/sfcs/slots.vue",
            "values": Array [
              3,
              3,
              3,
              3,
              3,
              3,
            ],
          },
        ],
        "name": "#default",
        "total": 6,
      },
      Object {
        "details": Array [
          Object {
            "path": "/sfcs/events.vue",
            "values": Array [
              Object {
                "dynamic": false,
                "value": "onAaa",
              },
            ],
          },
        ],
        "name": "@Aaa",
        "total": 1,
      },
      Object {
        "details": Array [
          Object {
            "path": "/sfcs/events.vue",
            "values": Array [
              Object {
                "dynamic": true,
                "value": "onBbb",
              },
            ],
          },
        ],
        "name": "@Bbb",
        "total": 1,
      },
      Object {
        "details": Array [
          Object {
            "path": "/sfcs/events.vue",
            "values": Array [
              Object {
                "dynamic": false,
                "value": "onClick",
              },
            ],
          },
        ],
        "name": "@click",
        "total": 1,
      },
      Object {
        "details": Array [
          Object {
            "path": "/sfcs/events.vue",
            "values": Array [
              Object {
                "dynamic": false,
                "value": "onFoo",
              },
            ],
          },
        ],
        "name": "@foo",
        "total": 1,
      },
      Object {
        "details": Array [
          Object {
            "path": "/sfcs/events.vue",
            "values": Array [
              Object {
                "dynamic": false,
                "value": "onFb",
              },
            ],
          },
        ],
        "name": "@fooBar",
        "total": 1,
      },
      Object {
        "details": Array [
          Object {
            "path": "/sfcs/events.vue",
            "values": Array [
              Object {
                "dynamic": undefined,
                "value": "active=$event",
              },
              Object {
                "dynamic": false,
                "value": "onActive",
              },
            ],
          },
        ],
        "name": "@update:active",
        "total": 2,
      },
      Object {
        "details": Array [
          Object {
            "path": "/sfcs/events.vue",
            "values": Array [
              Object {
                "dynamic": false,
                "value": "onUpN",
              },
            ],
          },
        ],
        "name": "@update:active-header-dropdown",
        "total": 1,
      },
      Object {
        "details": Array [
          Object {
            "path": "/sfcs/events.vue",
            "values": Array [
              Object {
                "dynamic": false,
                "value": "onUv",
              },
            ],
          },
        ],
        "name": "@update:value",
        "total": 1,
      },
      Object {
        "details": Array [
          Object {
            "path": "/sfcs/events.vue",
            "values": Array [
              Object {
                "dynamic": false,
                "value": "onVc",
              },
            ],
          },
        ],
        "name": "@visible-change",
        "total": 1,
      },
      Object {
        "details": Array [
          Object {
            "path": "/sfcs/slots.vue",
            "values": Array [],
          },
        ],
        "name": "_no_props_",
        "total": 5,
      },
    ],
    "total": 8,
  },
  "span": Object {
    "alias": Array [],
    "files": 1,
    "props": Array [
      Object {
        "details": Array [
          Object {
            "path": "/sfcs/ignore-tags.vue",
            "values": Array [],
          },
        ],
        "name": "_no_props_",
        "total": 1,
      },
    ],
    "total": 1,
  },
}
`;
